# 2019-01-28
 6:00 am | Steven Universe | 
 6:15 am | Amazing World of Gumball | 
 6:30 am | Amazing World of Gumball | 
 7:00 am | Amazing World of Gumball | 
 7:30 am | Amazing World of Gumball | 
 8:00 am | Teen Titans Go! | 
 8:30 am | Teen Titans Go! | 
 9:30 am | Amazing World of Gumball | 
10:00 am | Amazing World of Gumball | 
10:30 am | Amazing World of Gumball | 
11:00 am | Teen Titans Go! | 
11:30 am | Teen Titans Go! | 
12:00 pm | Teen Titans Go! | 
12:30 pm | Teen Titans Go! | 
 1:00 pm | Teen Titans Go! | Shrimps and Prime Rib
 3:00 pm | Amazing World of Gumball | 
 3:30 pm | Amazing World of Gumball | 
 4:00 pm | Amazing World of Gumball | 
 4:30 pm | Amazing World of Gumball | 
 5:00 pm | Craig of the Creek | Bug City
 7:00 pm | Steven Universe | 