# 2020-01-27
 6:00 am | Teen Titans Go! | 
 6:30 am | Teen Titans Go! | 
 7:00 am | Teen Titans Go! | 
 7:30 am | Teen Titans Go! | 
 8:00 am | Teen Titans Go! | 
 8:30 am | Teen Titans Go! | 
 9:00 am | Teen Titans Go! | 
 9:30 am | Teen Titans Go! | 
10:00 am | Teen Titans Go! | 
10:30 am | Teen Titans Go! | 
11:30 am | Teen Titans Go! | 
 1:30 pm | Teen Titans Go! | 
 2:00 pm | Teen Titans Go! | 
 2:30 pm | Teen Titans Go! | 
 3:00 pm | Teen Titans Go! | 
 4:00 pm | To Be Announced | 
 6:00 pm | To Be Announced | 