# 2020-11-30
 9:00 pm | Bob's Burgers | The Deepening
 9:30 pm | Bob's Burgers | Tina-Rannosaurus Wrecks
10:00 pm | American Dad | Rodger Codger
10:30 pm | American Dad | Homeland Insecurity
11:00 pm | Family Guy | 3 Acts of God
11:30 pm | Family Guy | Fresh Heir
12:00 am | Rick and Morty | Mortynight Run
12:30 am | Eric Andre Show | You Got Served
12:45 am | Eric Andre Show | Lizzo Up
 1:00 am | Aqua Teen | Super Sirloin
 1:15 am | Aqua Teen | Super Squatter
 1:30 am | Family Guy | 3 Acts of God
 2:00 am | Family Guy | Fresh Heir
 2:30 am | American Dad | Rodger Codger
 3:00 am | Rick and Morty | Mortynight Run
 3:30 am | Eric Andre Show | You Got Served
 3:45 am | Eric Andre Show | Lizzo Up
 4:00 am | 11 Minute Whambam 90's Ride | 11 Minute Whambam 90s Ride!
 4:15 am | Infomercials | When Panties Fly
 4:30 am | Aqua Teen | Super Sirloin
 4:45 am | Aqua Teen | Super Squatter
 5:00 am | Bob's Burgers | The Deepening
 5:30 am | Bob's Burgers | Tina-Rannosaurus Wrecks