# 2022-02-04
 6:00 am | Amazing World of Gumball | 
 6:30 am | Amazing World of Gumball | 
 7:00 am | Amazing World of Gumball | 
 7:20 am | Cocomelon | 
 7:30 am | Amazing World of Gumball | 
 7:50 am | Pocoyo | 
 8:00 am | Teen Titans Go! | 
 8:10 am | Bing | 
 8:30 am | Teen Titans Go! | 
 9:00 am | Teen Titans Go! | 
 9:30 am | Teen Titans Go! | 
10:00 am | Craig of the Creek | 
10:30 am | Craig of the Creek | 
11:00 am | Victor And Valentino | 
11:30 am | Teen Titans Go! | 
12:00 pm | Craig of the Creek | 
12:30 pm | Teen Titans Go! | Teen Titans Vroom
12:45 pm | Teen Titans Go! | 
 1:00 pm | Amazing World of Gumball | 
 1:30 pm | Amazing World of Gumball | 
 2:00 pm | Amazing World of Gumball | 
 2:30 pm | Amazing World of Gumball | 
 3:00 pm | Amazing World of Gumball | 
 3:30 pm | Amazing World of Gumball | 
 4:00 pm | Craig of the Creek | 
 4:30 pm | Craig of the Creek | 
 5:00 pm | Total DramaRama | 
 5:30 pm | Total DramaRama | 
 6:00 pm | Teen Titans Go! | 
 6:30 pm | Teen Titans Go! | 
 7:00 pm | Amazing World of Gumball | 
 7:30 pm | Amazing World of Gumball | 