# 2019-11-01
 6:00 am | Steven Universe | 
 6:15 am | Teen Titans Go! | 
 6:30 am | Teen Titans Go! | 
 7:00 am | Total Drama Action | 
 7:30 am | Total Drama Action | 
 8:00 am | Amazing World of Gumball | 
 8:30 am | Amazing World of Gumball | 
 9:00 am | Total DramaRama | 
 9:30 am | Total DramaRama | 
10:00 am | Teen Titans Go! | 
10:30 am | Teen Titans Go! | 
11:00 am | Teen Titans Go! | 
11:30 am | Teen Titans Go! | 
12:00 pm | Amazing World of Gumball | 
12:30 pm | Amazing World of Gumball | 
 1:00 pm | Amazing World of Gumball | 
 1:30 pm | Total DramaRama | 
 2:00 pm | Teen Titans Go! | 
 2:30 pm | Teen Titans Go! | 
 3:00 pm | Ben 10 | 
 3:15 pm | Amazing World of Gumball | 
 3:30 pm | Amazing World of Gumball | 
 4:00 pm | Total Drama Action | 
 4:30 pm | Total Drama Action | 
 5:00 pm | Craig of the Creek | 
 5:30 pm | Total DramaRama | 
 6:00 pm | Teen Titans Go! | 
 6:30 pm | Teen Titans Go! | 
 7:00 pm | We Bare Bears | 
 7:30 pm | Amazing World of Gumball | 
 8:00 pm | American Dad! | 
 8:30 pm | American Dad! | 