# 2020-09-06
 6:00 am | We Bare Bears | Fashion Bears
 6:15 am | We Bare Bears | The Island
 6:30 am | We Bare Bears | Chicken and Waffles
 6:45 am | We Bare Bears | The Audition
 7:00 am | We Bare Bears | Captain Craboo
 7:30 am | We Bare Bears | Yuri and the Bear
 7:45 am | We Bare Bears | Creature Mysteries
 8:00 am | We Bare Bears | Everyone's Tube
 8:15 am | We Bare Bears | Grizz Helps
 8:30 am | We Bare Bears | The Library
 8:45 am | We Bare Bears | Grizzly the Movie
 9:00 am | We Bare Bears | Christmas Parties
 9:15 am | We Bare Bears | Anger Management
 9:30 am | We Bare Bears | Subway
 9:45 am | We Bare Bears | $100
10:00 am | We Bare Bears | Panda's Friend
10:15 am | We Bare Bears | Professor Lampwick
10:30 am | We Bare Bears | Neighbors
10:45 am | We Bare Bears | Planet Bears
11:00 am | We Bare Bears | Ralph
11:15 am | We Bare Bears | Charlie's Big Foot
11:30 am | We Bare Bears | Coffee Cave
11:45 am | We Bare Bears | Panda's Art
12:00 pm | We Bare Bears | The Demon
12:15 pm | We Bare Bears | Lucy's Brother
12:30 pm | We Bare Bears | Poppy Rangers
12:45 pm | We Bare Bears | Private Lake
 1:00 pm | We Bare Bears | The Fair
 1:15 pm | We Bare Bears | Road Trip
 1:30 pm | We Bare Bears | Lunch With Tabes
 1:45 pm | We Bare Bears | The Kitty
 2:00 pm | We Bare Bears | Summer Love
 2:15 pm | We Bare Bears | Kyle
 2:30 pm | We Bare Bears | Crowbar Jones
 2:45 pm | We Bare Bears | Dance Lessons
 3:00 pm | We Bare Bears | Citizen Tabes
 3:15 pm | We Bare Bears | Dog Hotel
 3:30 pm | We Bare Bears | Icy Nights II
 3:45 pm | We Bare Bears | The Nom Nom Show
 4:00 pm | We Bare Bears | Bear Lift
 4:15 pm | We Bare Bears | Spa Day
 4:30 pm | We Bare Bears | Ice Cave
 4:45 pm | We Bare Bears | Bunnies
 5:00 pm | We Bare Bears | Charlie's Halloween Thing
 5:15 pm | We Bare Bears | Panda 2
 5:30 pm | We Bare Bears | Pigeons
 5:45 pm | We Bare Bears | Beehive
 6:00 pm | We Bare Bears | Tubin'
 6:15 pm | We Bare Bears | The Perfect Tree
 6:30 pm | We Bare Bears | Ranger Games
 6:45 pm | We Bare Bears | Bro Brawl
 7:00 pm | We Bare Bears | Bearz II Men
 7:15 pm | We Bare Bears | Vacation
 7:30 pm | We Bare Bears | I Am Ice Bear
 7:45 pm | We Bare Bears | The Park