# 2022-01-01
 6:00 am | Minions | 
 7:00 am | Minions | 
 8:00 am | Minions | 
 9:00 am | Minions | 
10:00 am | We Baby Bears | The Magical Box
10:15 am | We Baby Bears | Bears and the Beanstalk
10:30 am | We Baby Bears | Boo-Dunnit
10:45 am | We Baby Bears | The Little Mer-Bear
11:00 am | We Baby Bears | Modern-ish Stone Age Family
11:15 am | We Baby Bears | Excalibear
11:22 am | We Baby Bears | 
11:30 am | We Baby Bears | Meat House
11:45 am | We Baby Bears | Pirate Parrot Polly
12:00 pm | We Baby Bears | Baby Bear Genius
12:15 pm | We Baby Bears | Bug City Sleuths
12:30 pm | We Baby Bears | The Magical Box
12:45 pm | We Baby Bears | Boo-Dunnit
 1:00 pm | We Baby Bears | The Little Mer-Bear
 1:15 pm | We Baby Bears | Bears and the Beanstalk
 1:30 pm | We Baby Bears | Meat House
 1:45 pm | We Baby Bears | Baby Bear Genius
 2:00 pm | We Baby Bears | Bug City Sleuths
 2:10 pm | We Baby Bears | Modern-ish Stone Age Family
 2:20 pm | We Baby Bears | 
 2:30 pm | We Baby Bears | Excalibear
 2:45 pm | We Baby Bears | Pirate Parrot Polly
 3:00 pm | We Baby Bears | The Magical Box
 3:15 pm | We Baby Bears | Bears and the Beanstalk
 3:30 pm | We Baby Bears | Boo-Dunnit
 3:45 pm | We Baby Bears | The Little Mer-Bear
 4:00 pm | We Baby Bears | Modern-ish Stone Age Family
 4:15 pm | We Baby Bears | Excalibear
 4:30 pm | We Baby Bears | Meat House
 4:45 pm | We Baby Bears | Pirate Parrot Polly
 5:00 pm | We Baby Bears | Baby Bear Genius
 5:10 pm | We Baby Bears | Bug City Sleuths
 5:20 pm | We Baby Bears | 
 5:30 pm | We Baby Bears | The Magical Box
 5:45 pm | We Baby Bears | The Little Mer-Bear
 6:00 pm | We Baby Bears | Bears and the Beanstalk
 6:15 pm | We Baby Bears | Boo-Dunnit
 6:30 pm | We Baby Bears | Bug City Sleuths
 6:45 pm | We Baby Bears | Pirate Parrot Polly
 7:00 pm | We Baby Bears | Meat House
 7:10 pm | We Baby Bears | Excalibear
 7:20 pm | We Baby Bears | 
 7:30 pm | We Baby Bears | Modern-ish Stone Age Family
 7:45 pm | We Baby Bears | Baby Bear Genius