# 2020-12-25
 6:00 am | The Elf on the Shelf: An Elf's Story | 
 6:30 am | Elf Pets: Santa's St. Bernards Save Christmas | 
 7:00 am | Paddington | 
 9:00 am | Paddington 2 | 
11:00 am | Paddington | 
 1:00 pm | Paddington 2 | 
 3:00 pm | Paddington | 
 5:00 pm | Paddington 2 | 
 7:00 pm | Paddington | 